PCBNEW-LibModule-V1  
# encoding utf-8
Units mm
$INDEX
SOP65P490X110-13N
$EndINDEX
$MODULE SOP65P490X110-13N
Po 0 0 0 15 00000000 00000000 ~~
Li SOP65P490X110-13N
Cd 
Sc 00000000
At SMD
Op 0 0 0
.SolderMask 0
.SolderPaste 0
T0 -0.466787 -2.91875 1.01257 1.01257 0 0.05 N V 21 "SOP65P490X110-13N"
T1 0.175634 2.90963 1.00941 1.00941 0 0.05 N V 21 "VAL**"
DP 0 0 0 0 4 0.381 19
Dl -0.444888 -0.737
Dl 0.438 -0.737
Dl 0.438 0.748591
Dl -0.444888 0.748591
DC -3.61 -2.105 -3.41 -2.105 0 21
DC -3.61 -2.105 -3.41 -2.105 0 24
DS -1.5 -2.0195 1.5 -2.0195 0.127 24
DS -1.5 2.0195 1.5 2.0195 0.127 24
DS -1.5 -2.0195 1.5 -2.0195 0.127 21
DS -1.5 2.0195 1.5 2.0195 0.127 21
DS -1.5 -2.0195 -1.5 2.0195 0.127 24
DS 1.5 -2.0195 1.5 2.0195 0.127 24
DS -3.135 -2.2695 3.135 -2.2695 0.05 24
DS -3.135 2.2695 3.135 2.2695 0.05 24
DS -3.135 -2.2695 -3.135 2.2695 0.05 24
DS 3.135 -2.2695 3.135 2.2695 0.05 24
$PAD
Sh "1" R 1.45 0.48 0 0 0
At SMD N 00888000
.SolderMask 0
.SolderPaste 0
Ne 0 ""
Po -2.16 -1.625
$EndPAD
$PAD
Sh "2" R 1.45 0.48 0 0 0
At SMD N 00888000
.SolderMask 0
.SolderPaste 0
Ne 0 ""
Po -2.16 -0.975
$EndPAD
$PAD
Sh "3" R 1.45 0.48 0 0 0
At SMD N 00888000
.SolderMask 0
.SolderPaste 0
Ne 0 ""
Po -2.16 -0.325
$EndPAD
$PAD
Sh "4" R 1.45 0.48 0 0 0
At SMD N 00888000
.SolderMask 0
.SolderPaste 0
Ne 0 ""
Po -2.16 0.325
$EndPAD
$PAD
Sh "5" R 1.45 0.48 0 0 0
At SMD N 00888000
.SolderMask 0
.SolderPaste 0
Ne 0 ""
Po -2.16 0.975
$EndPAD
$PAD
Sh "6" R 1.45 0.48 0 0 0
At SMD N 00888000
.SolderMask 0
.SolderPaste 0
Ne 0 ""
Po -2.16 1.625
$EndPAD
$PAD
Sh "7" R 1.45 0.48 0 0 0
At SMD N 00888000
.SolderMask 0
.SolderPaste 0
Ne 0 ""
Po 2.16 1.625
$EndPAD
$PAD
Sh "8" R 1.45 0.48 0 0 0
At SMD N 00888000
.SolderMask 0
.SolderPaste 0
Ne 0 ""
Po 2.16 0.975
$EndPAD
$PAD
Sh "9" R 1.45 0.48 0 0 0
At SMD N 00888000
.SolderMask 0
.SolderPaste 0
Ne 0 ""
Po 2.16 0.325
$EndPAD
$PAD
Sh "10" R 1.45 0.48 0 0 0
At SMD N 00888000
.SolderMask 0
.SolderPaste 0
Ne 0 ""
Po 2.16 -0.325
$EndPAD
$PAD
Sh "11" R 1.45 0.48 0 0 0
At SMD N 00888000
.SolderMask 0
.SolderPaste 0
Ne 0 ""
Po 2.16 -0.975
$EndPAD
$PAD
Sh "12" R 1.45 0.48 0 0 0
At SMD N 00888000
.SolderMask 0
.SolderPaste 0
Ne 0 ""
Po 2.16 -1.625
$EndPAD
$PAD
Sh "13" R 1.753 2.947 0 0 0
At SMD N 00888000
.SolderMask 0
Ne 0 ""
Po 0 0
$EndPAD
$EndMODULE SOP65P490X110-13N
