(module "NMJ6HCD2" (layer F.Cu)
  (descr "NMJ6HCD2")
  (tags "Connector")
  (fp_text reference J** (at -13.907 2.317) (layer F.SilkS)
    (effects (font (size 1.27 1.27) (thickness 0.254)))
  )
  (fp_text user %R (at -13.907 2.317) (layer F.Fab)
    (effects (font (size 1.27 1.27) (thickness 0.254)))
  )
  (fp_text value "NMJ6HCD2" (at -13.907 2.317) (layer F.SilkS) hide
    (effects (font (size 1.27 1.27) (thickness 0.254)))
  )
  (fp_line (start -23.61 -9.1) (end 0 -9.1) (layer F.Fab) (width 0.2))
  (fp_line (start 0 -9.1) (end 0 9.1) (layer F.Fab) (width 0.2))
  (fp_line (start 0 9.1) (end -23.61 9.1) (layer F.Fab) (width 0.2))
  (fp_line (start -23.61 9.1) (end -23.61 -9.1) (layer F.Fab) (width 0.2))
  (fp_line (start 0 -5.5) (end 2.92 -5.5) (layer F.Fab) (width 0.2))
  (fp_line (start 2.92 -5.5) (end 2.92 5.5) (layer F.Fab) (width 0.2))
  (fp_line (start 2.92 5.5) (end 0 5.5) (layer F.Fab) (width 0.2))
  (fp_line (start -23.61 -9.1) (end -23.61 9.1) (layer F.SilkS) (width 0.2))
  (fp_line (start 0 9.1) (end 0 5.5) (layer F.SilkS) (width 0.2))
  (fp_line (start 0 5.5) (end 2.92 5.5) (layer F.SilkS) (width 0.2))
  (fp_line (start 2.92 5.5) (end 2.92 -5.5) (layer F.SilkS) (width 0.2))
  (fp_line (start 2.92 -5.5) (end 0 -5.5) (layer F.SilkS) (width 0.2))
  (fp_line (start 0 -5.5) (end 0 -9.1) (layer F.SilkS) (width 0.2))
  (fp_line (start -23.61 -9.1) (end -17.685 -9.1) (layer F.SilkS) (width 0.2))
  (fp_line (start -23.61 9.1) (end -17.685 9.1) (layer F.SilkS) (width 0.2))
  (fp_circle (center -16.762 10.022) (end -16.762 10.06762) (layer F.SilkS) (width 0.2))
  (pad 1 thru_hole circle (at -16.7 8.115) (size 2.1 2.1) (drill 1.4) (layers *.Cu *.Mask))
  (pad 2 thru_hole circle (at -10.35 8.115) (size 2.1 2.1) (drill 1.4) (layers *.Cu *.Mask))
  (pad 3 thru_hole circle (at -4 8.115) (size 2.1 2.1) (drill 1.4) (layers *.Cu *.Mask))
  (pad 4 thru_hole circle (at -4 -8.115) (size 2.1 2.1) (drill 1.4) (layers *.Cu *.Mask))
  (pad 5 thru_hole circle (at -10.35 -8.115) (size 2.1 2.1) (drill 1.4) (layers *.Cu *.Mask))
  (pad 6 thru_hole circle (at -16.7 -8.115) (size 2.1 2.1) (drill 1.4) (layers *.Cu *.Mask))
)
