(module "RCJ2134" (layer F.Cu)
  (descr "RCJ-2134-1")
  (tags "Connector")
  (fp_text reference J** (at -7.000 -3.713) (layer F.SilkS)
    (effects (font (size 1.27 1.27) (thickness 0.254)))
  )
  (fp_text user %R (at -7.000 -3.713) (layer F.Fab)
    (effects (font (size 1.27 1.27) (thickness 0.254)))
  )
  (fp_text value "RCJ2134" (at -7.000 -3.713) (layer F.SilkS) hide
    (effects (font (size 1.27 1.27) (thickness 0.254)))
  )
  (fp_line (start -20.7 -5.5) (end 6.7 -5.5) (layer F.Fab) (width 0.2))
  (fp_line (start 6.7 -5.5) (end 6.7 4.75) (layer F.Fab) (width 0.2))
  (fp_line (start 6.7 4.75) (end -20.7 4.75) (layer F.Fab) (width 0.2))
  (fp_line (start -20.7 4.75) (end -20.7 -5.5) (layer F.Fab) (width 0.2))
  (fp_line (start -19.1 -5.5) (end -8.9 -5.5) (layer F.Fab) (width 0.2))
  (fp_line (start -8.9 -5.5) (end -8.9 -7) (layer F.Fab) (width 0.2))
  (fp_line (start -8.9 -7) (end -19.1 -7) (layer F.Fab) (width 0.2))
  (fp_line (start -19.1 -7) (end -19.1 -5.5) (layer F.Fab) (width 0.2))
  (fp_line (start -18.15 -7) (end -9.85 -7) (layer F.Fab) (width 0.2))
  (fp_line (start -9.85 -7) (end -9.85 -13.3) (layer F.Fab) (width 0.2))
  (fp_line (start -9.85 -13.3) (end -18.15 -13.3) (layer F.Fab) (width 0.2))
  (fp_line (start -18.15 -13.3) (end -18.15 -7) (layer F.Fab) (width 0.2))
  (fp_line (start -5.1 -5.5) (end 5.1 -5.5) (layer F.Fab) (width 0.2))
  (fp_line (start 5.1 -5.5) (end 5.1 -7) (layer F.Fab) (width 0.2))
  (fp_line (start 5.1 -7) (end -5.1 -7) (layer F.Fab) (width 0.2))
  (fp_line (start -5.1 -7) (end -5.1 -5.5) (layer F.Fab) (width 0.2))
  (fp_line (start -4.15 -7) (end 4.15 -7) (layer F.Fab) (width 0.2))
  (fp_line (start 4.15 -7) (end 4.15 -13.3) (layer F.Fab) (width 0.2))
  (fp_line (start 4.15 -13.3) (end -4.15 -13.3) (layer F.Fab) (width 0.2))
  (fp_line (start -4.15 -13.3) (end -4.15 -7) (layer F.Fab) (width 0.2))
  (fp_line (start -21.9 -13.8) (end 7.9 -13.8) (layer F.CrtYd) (width 0.1))
  (fp_line (start 7.9 -13.8) (end 7.9 6.375) (layer F.CrtYd) (width 0.1))
  (fp_line (start 7.9 6.375) (end -21.9 6.375) (layer F.CrtYd) (width 0.1))
  (fp_line (start -21.9 6.375) (end -21.9 -13.8) (layer F.CrtYd) (width 0.1))
  (fp_line (start 0 5.325) (end 0 5.325) (layer F.SilkS) (width 0.2))
  (fp_line (start 0.2 5.325) (end 0.2 5.325) (layer F.SilkS) (width 0.2))
  (fp_line (start -20.7 -2.775) (end -20.7 -5.5) (layer F.SilkS) (width 0.1))
  (fp_line (start -20.7 -5.5) (end 6.7 -5.5) (layer F.SilkS) (width 0.1))
  (fp_line (start 6.7 -5.5) (end 6.7 -2.775) (layer F.SilkS) (width 0.1))
  (fp_line (start -20.7 2.725) (end -20.7 4.75) (layer F.SilkS) (width 0.1))
  (fp_line (start -20.7 4.75) (end -20 4.75) (layer F.SilkS) (width 0.1))
  (fp_line (start 6.7 2.725) (end 6.7 4.75) (layer F.SilkS) (width 0.1))
  (fp_line (start 6.7 4.75) (end -2 4.75) (layer F.SilkS) (width 0.1))
  (fp_line (start -16 4.75) (end -6 4.75) (layer F.SilkS) (width 0.1))
  (fp_arc (start 0.1 5.325) (end 0.000 5.325) (angle -180) (layer F.SilkS) (width 0.2))
  (fp_arc (start 0.1 5.325) (end 0.200 5.325) (angle -180) (layer F.SilkS) (width 0.2))
  (pad 1 thru_hole circle (at 0.000 -0) (size 4.200 4.200) (drill 2.8) (layers *.Cu *.Mask))
  (pad 2 thru_hole circle (at -4.000 4.75) (size 2.250 2.250) (drill 1.5) (layers *.Cu *.Mask))
  (pad 3 thru_hole circle (at -14.000 -0) (size 4.200 4.200) (drill 2.8) (layers *.Cu *.Mask))
  (pad 4 thru_hole circle (at -18.000 4.75) (size 2.250 2.250) (drill 1.5) (layers *.Cu *.Mask))
  (pad MH1 np_thru_hole circle (at 5.150 -0) (size 4.5 0) (drill 4.5) (layers *.Cu *.Mask))
  (pad MH2 np_thru_hole circle (at -19.150 -0) (size 4.5 0) (drill 4.5) (layers *.Cu *.Mask))
  (model "C:\Users\Koen\OneDrive\NMJ6HCD2-pcb-part-libraries\SamacSys_Parts.3dshapes\\RCJ-2134.stp"
    (at (xyz 0 0 0))
    (scale (xyz 1 1 1))
    (rotate (xyz 0 0 0))
  )
)
