EESchema Schematic File Version 4
EELAYER 30 0
EELAYER END
$Descr A3 16535 11693
encoding utf-8
Sheet 1 2
Title "TPA6120 based headphone amplifier rev 1.0.0"
Date "2019-12-08"
Rev "1"
Comp "Cocoacrumbs"
Comment1 ""
Comment2 ""
Comment3 ""
Comment4 ""
$EndDescr
$Comp
L LT3045EMSE-1_PBF:LT3045EMSE-1#PBF U1
U 1 1 5D474B27
P 9150 1600
F 0 "U1" H 9100 2400 50  0000 L CNN
F 1 "LT3045EMSE" H 8900 2300 50  0000 L CNN
F 2 "Package_SO:MSOP-12-1EP_3x4mm_P0.65mm_EP1.65x2.85mm" H 9150 1600 50  0001 L BNN
F 3 "" H 9150 1600 50  0001 L BNN
F 4 "IC REG LINEAR 500MA 12MSOP" H 9150 1600 50  0001 L BNN "Field4"
F 5 "TSSOP-12 Linear Technology" H 9150 1600 50  0001 L BNN "Field5"
F 6 "Linear Technology" H 9150 1600 50  0001 L BNN "Field6"
F 7 "4.33 USD" H 9150 1600 50  0001 L BNN "Field7"
F 8 "LT3045EMSE-1#PBF" H 9150 1600 50  0001 L BNN "Field8"
	1    9150 1600
	1    0    0    -1  
$EndComp
$Comp
L Connector:Screw_Terminal_01x02 J1
U 1 1 5D479C9E
P 3150 3200
F 0 "J1" H 3068 2967 50  0000 C CNN
F 1 "Screw_Terminal_01x02" H 3068 2966 50  0001 C CNN
F 2 "TerminalBlock:TerminalBlock_bornier-2_P5.08mm" H 3150 3200 50  0001 C CNN
F 3 "~" H 3150 3200 50  0001 C CNN
	1    3150 3200
	-1   0    0    1   
$EndComp
$Comp
L Device:CP C8
U 1 1 5D47D1D6
P 5600 3150
F 0 "C8" H 5718 3196 50  0000 L CNN
F 1 "3900uF" H 5718 3105 50  0000 L CNN
F 2 "Capacitor_THT:CP_Radial_D16.0mm_P7.50mm" H 5638 3000 50  0001 C CNN
F 3 "~" H 5600 3150 50  0001 C CNN
	1    5600 3150
	1    0    0    -1  
$EndComp
$Comp
L Device:C C3
U 1 1 5D47F5BF
P 6600 1950
F 0 "C3" H 6715 1996 50  0000 L CNN
F 1 "0.1uF" H 6715 1905 50  0000 L CNN
F 2 "Capacitor_SMD:C_0805_2012Metric_Pad1.15x1.40mm_HandSolder" H 6638 1800 50  0001 C CNN
F 3 "~" H 6600 1950 50  0001 C CNN
	1    6600 1950
	1    0    0    -1  
$EndComp
$Comp
L Device:LED D1
U 1 1 5D4806DF
P 7150 1700
F 0 "D1" V 7189 1583 50  0000 R CNN
F 1 "LED" V 7098 1583 50  0000 R CNN
F 2 "LED_SMD:LED_0805_2012Metric_Pad1.15x1.40mm_HandSolder" H 7150 1700 50  0001 C CNN
F 3 "~" H 7150 1700 50  0001 C CNN
	1    7150 1700
	0    -1   -1   0   
$EndComp
$Comp
L Device:R R3
U 1 1 5D483FF8
P 7150 2200
F 0 "R3" H 7220 2246 50  0000 L CNN
F 1 "1.8k" H 7220 2155 50  0000 L CNN
F 2 "Resistor_SMD:R_0805_2012Metric_Pad1.15x1.40mm_HandSolder" V 7080 2200 50  0001 C CNN
F 3 "~" H 7150 2200 50  0001 C CNN
	1    7150 2200
	1    0    0    -1  
$EndComp
$Comp
L Device:D D2
U 1 1 5D488450
P 4150 2850
F 0 "D2" V 4104 2929 50  0000 L CNN
F 1 "MUR220G" V 4195 2929 50  0000 L CNN
F 2 "Diode_THT:D_DO-41_SOD81_P7.62mm_Horizontal" H 4150 2850 50  0001 C CNN
F 3 "~" H 4150 2850 50  0001 C CNN
	1    4150 2850
	0    1    1    0   
$EndComp
$Comp
L Device:D D3
U 1 1 5D488B43
P 4650 2850
F 0 "D3" V 4604 2929 50  0000 L CNN
F 1 "MUR220G" V 4695 2929 50  0000 L CNN
F 2 "Diode_THT:D_DO-41_SOD81_P7.62mm_Horizontal" H 4650 2850 50  0001 C CNN
F 3 "~" H 4650 2850 50  0001 C CNN
	1    4650 2850
	0    1    1    0   
$EndComp
$Comp
L Device:D D4
U 1 1 5D489445
P 4150 3450
F 0 "D4" V 4104 3529 50  0000 L CNN
F 1 "MUR220G" V 4195 3529 50  0000 L CNN
F 2 "Diode_THT:D_DO-41_SOD81_P7.62mm_Horizontal" H 4150 3450 50  0001 C CNN
F 3 "~" H 4150 3450 50  0001 C CNN
	1    4150 3450
	0    1    1    0   
$EndComp
$Comp
L Device:D D5
U 1 1 5D48A64B
P 4650 3450
F 0 "D5" V 4604 3529 50  0000 L CNN
F 1 "MUR220G" V 4695 3529 50  0000 L CNN
F 2 "Diode_THT:D_DO-41_SOD81_P7.62mm_Horizontal" H 4650 3450 50  0001 C CNN
F 3 "~" H 4650 3450 50  0001 C CNN
	1    4650 3450
	0    1    1    0   
$EndComp
$Comp
L Device:C C7
U 1 1 5D48CEA9
P 5200 2850
F 0 "C7" H 5315 2896 50  0000 L CNN
F 1 "0.1uF" H 5315 2805 50  0000 L CNN
F 2 "Capacitor_THT:C_Rect_L10.3mm_W5.7mm_P7.50mm_MKS4" H 5238 2700 50  0001 C CNN
F 3 "~" H 5200 2850 50  0001 C CNN
	1    5200 2850
	1    0    0    -1  
$EndComp
$Comp
L Device:C C10
U 1 1 5D48D264
P 5200 3450
F 0 "C10" H 5315 3496 50  0000 L CNN
F 1 "0.1uF" H 5315 3405 50  0000 L CNN
F 2 "Capacitor_THT:C_Rect_L10.3mm_W5.7mm_P7.50mm_MKS4" H 5238 3300 50  0001 C CNN
F 3 "~" H 5200 3450 50  0001 C CNN
	1    5200 3450
	1    0    0    -1  
$EndComp
$Comp
L Device:C C6
U 1 1 5D48D7FC
P 3600 2850
F 0 "C6" H 3715 2896 50  0000 L CNN
F 1 "0.1uF" H 3715 2805 50  0000 L CNN
F 2 "Capacitor_THT:C_Rect_L10.3mm_W5.7mm_P7.50mm_MKS4" H 3638 2700 50  0001 C CNN
F 3 "~" H 3600 2850 50  0001 C CNN
	1    3600 2850
	1    0    0    -1  
$EndComp
$Comp
L Device:C C9
U 1 1 5D48E15A
P 3600 3450
F 0 "C9" H 3715 3496 50  0000 L CNN
F 1 "0.1uF" H 3715 3405 50  0000 L CNN
F 2 "Capacitor_THT:C_Rect_L10.3mm_W5.7mm_P7.50mm_MKS4" H 3638 3300 50  0001 C CNN
F 3 "~" H 3600 3450 50  0001 C CNN
	1    3600 3450
	1    0    0    -1  
$EndComp
Wire Wire Line
	3600 3000 4150 3000
Wire Wire Line
	3600 2700 4150 2700
Wire Wire Line
	4650 2700 5200 2700
Wire Wire Line
	4650 3000 5200 3000
Wire Wire Line
	3600 3300 4150 3300
Wire Wire Line
	3600 3600 4150 3600
Wire Wire Line
	4650 3300 5200 3300
Wire Wire Line
	5200 3600 4650 3600
Wire Wire Line
	4650 3000 4650 3200
Connection ~ 4650 3000
Connection ~ 4650 3300
Wire Wire Line
	4150 3000 4150 3100
Connection ~ 4150 3000
Connection ~ 4150 3300
Wire Wire Line
	3350 3100 4150 3100
Connection ~ 4150 3100
Wire Wire Line
	4150 3100 4150 3300
Wire Wire Line
	3350 3200 4650 3200
Connection ~ 4650 3200
Wire Wire Line
	4650 3200 4650 3300
Wire Wire Line
	4150 2700 4650 2700
Connection ~ 4150 2700
Connection ~ 4650 2700
Wire Wire Line
	5200 2700 5600 2700
Wire Wire Line
	5600 2700 5600 3000
Connection ~ 5200 2700
Wire Wire Line
	4150 3600 4650 3600
Connection ~ 4150 3600
Connection ~ 4650 3600
Wire Wire Line
	5200 3600 5600 3600
Wire Wire Line
	5600 3600 5600 3300
Connection ~ 5200 3600
Wire Wire Line
	5600 3600 6100 3600
Wire Wire Line
	6600 2400 6600 2100
Connection ~ 5600 3600
Wire Wire Line
	6600 1500 6600 1800
Wire Wire Line
	6600 1500 7150 1500
Wire Wire Line
	7150 1500 7150 1550
Wire Wire Line
	7150 1850 7150 2050
Wire Wire Line
	7150 2350 7150 2400
Wire Wire Line
	7150 2400 6600 2400
Connection ~ 5600 2700
$Comp
L Device:C C4
U 1 1 5D493FBE
P 7700 1950
F 0 "C4" H 7815 1996 50  0000 L CNN
F 1 "4.7uF" H 7815 1905 50  0000 L CNN
F 2 "Capacitor_SMD:C_0805_2012Metric_Pad1.15x1.40mm_HandSolder" H 7738 1800 50  0001 C CNN
F 3 "~" H 7700 1950 50  0001 C CNN
	1    7700 1950
	1    0    0    -1  
$EndComp
Wire Wire Line
	7150 1500 7700 1500
Wire Wire Line
	7700 1500 7700 1800
Connection ~ 7150 1500
Wire Wire Line
	7700 2100 7700 2400
Wire Wire Line
	7700 2400 7150 2400
Connection ~ 7150 2400
Wire Wire Line
	7700 1500 8150 1500
Connection ~ 7700 1500
Wire Wire Line
	8250 1300 8150 1300
Wire Wire Line
	8150 1300 8150 1500
Connection ~ 8150 1500
Wire Wire Line
	8150 1500 8250 1500
Wire Wire Line
	7700 2400 10150 2400
Wire Wire Line
	10150 2400 10150 2000
Wire Wire Line
	10150 2000 10050 2000
Connection ~ 7700 2400
Wire Wire Line
	8150 1500 8150 1600
Wire Wire Line
	8250 1600 8150 1600
Connection ~ 8150 1600
Wire Wire Line
	8150 1600 8150 1700
Wire Wire Line
	8250 1700 8150 1700
Wire Wire Line
	8250 1400 8000 1400
Wire Wire Line
	7700 2400 7700 2900
Wire Wire Line
	7700 2900 8000 2900
Wire Wire Line
	10050 1100 10150 1100
Wire Wire Line
	10150 1100 10150 2000
Connection ~ 10150 2000
$Comp
L Device:R R4
U 1 1 5D49DA91
P 10250 2650
F 0 "R4" H 10320 2696 50  0000 L CNN
F 1 "147k" H 10320 2605 50  0000 L CNN
F 2 "Resistor_SMD:R_0805_2012Metric_Pad1.15x1.40mm_HandSolder" V 10180 2650 50  0001 C CNN
F 3 "~" H 10250 2650 50  0001 C CNN
	1    10250 2650
	1    0    0    -1  
$EndComp
Wire Wire Line
	10050 1700 10250 1700
Wire Wire Line
	10250 1700 10250 2400
$Comp
L Device:C C5
U 1 1 5D49F2D1
P 10600 2650
F 0 "C5" H 10715 2696 50  0000 L CNN
F 1 "4.7uF" H 10715 2605 50  0000 L CNN
F 2 "Capacitor_SMD:C_0805_2012Metric_Pad1.15x1.40mm_HandSolder" H 10638 2500 50  0001 C CNN
F 3 "~" H 10600 2650 50  0001 C CNN
	1    10600 2650
	1    0    0    -1  
$EndComp
Wire Wire Line
	10250 2400 10600 2400
Wire Wire Line
	10600 2400 10600 2500
Connection ~ 10250 2400
Wire Wire Line
	10250 2400 10250 2500
Wire Wire Line
	8000 2900 10250 2900
Wire Wire Line
	10600 2900 10600 2800
Connection ~ 8000 2900
Wire Wire Line
	10250 2800 10250 2900
Connection ~ 10250 2900
Wire Wire Line
	10250 2900 10600 2900
$Comp
L Device:C C1
U 1 1 5D4A27D9
P 11400 1800
F 0 "C1" H 11515 1846 50  0000 L CNN
F 1 "10uF" H 11515 1755 50  0000 L CNN
F 2 "Capacitor_SMD:C_1206_3216Metric_Pad1.42x1.75mm_HandSolder" H 11438 1650 50  0001 C CNN
F 3 "~" H 11400 1800 50  0001 C CNN
	1    11400 1800
	1    0    0    -1  
$EndComp
$Comp
L Device:R R5
U 1 1 5D4A2F11
P 11000 2650
F 0 "R5" H 11070 2696 50  0000 L CNN
F 1 "49.9k" H 11070 2605 50  0000 L CNN
F 2 "Resistor_SMD:R_0805_2012Metric_Pad1.15x1.40mm_HandSolder" V 10930 2650 50  0001 C CNN
F 3 "~" H 11000 2650 50  0001 C CNN
	1    11000 2650
	1    0    0    -1  
$EndComp
$Comp
L Device:R R2
U 1 1 5D4A3418
P 11000 2150
F 0 "R2" H 11070 2196 50  0000 L CNN
F 1 "453k" H 11070 2105 50  0000 L CNN
F 2 "Resistor_SMD:R_0805_2012Metric_Pad1.15x1.40mm_HandSolder" V 10930 2150 50  0001 C CNN
F 3 "~" H 11000 2150 50  0001 C CNN
	1    11000 2150
	1    0    0    -1  
$EndComp
Wire Wire Line
	11000 2300 11000 2400
Wire Wire Line
	10600 2900 11000 2900
Wire Wire Line
	11000 2900 11000 2800
Connection ~ 10600 2900
Wire Wire Line
	10050 1600 10350 1600
Wire Wire Line
	10350 1600 10350 2300
Wire Wire Line
	10350 2300 10700 2300
Wire Wire Line
	10700 2300 10700 2400
Wire Wire Line
	10700 2400 11000 2400
Connection ~ 11000 2400
Wire Wire Line
	11000 2400 11000 2500
Wire Wire Line
	11000 1300 11000 2000
Wire Wire Line
	10050 1400 10050 1300
Connection ~ 10050 1300
Wire Wire Line
	10050 1300 11000 1300
$Comp
L Device:C C2
U 1 1 5D4AD507
P 11850 1800
F 0 "C2" H 11965 1846 50  0000 L CNN
F 1 "0uF" H 11965 1755 50  0000 L CNN
F 2 "Capacitor_SMD:C_1206_3216Metric_Pad1.42x1.75mm_HandSolder" H 11888 1650 50  0001 C CNN
F 3 "~" H 11850 1800 50  0001 C CNN
	1    11850 1800
	1    0    0    -1  
$EndComp
Wire Wire Line
	11000 2900 11400 2900
Wire Wire Line
	11400 2900 11400 1950
Connection ~ 11000 2900
Wire Wire Line
	11850 2900 11400 2900
Wire Wire Line
	11850 1950 11850 2900
Connection ~ 11400 2900
Connection ~ 11000 1300
Wire Wire Line
	11400 1650 11400 1500
Wire Wire Line
	10050 1500 11400 1500
Wire Wire Line
	11850 1300 12250 1300
Connection ~ 11850 1300
$Comp
L Connector:Screw_Terminal_01x02 J2
U 1 1 5D4EE65A
P 3150 8100
F 0 "J2" H 3068 7867 50  0000 C CNN
F 1 "Screw_Terminal_01x02" H 3068 7866 50  0001 C CNN
F 2 "TerminalBlock:TerminalBlock_bornier-2_P5.08mm" H 3150 8100 50  0001 C CNN
F 3 "~" H 3150 8100 50  0001 C CNN
	1    3150 8100
	-1   0    0    1   
$EndComp
$Comp
L Device:CP C23
U 1 1 5D4EE660
P 5600 8050
F 0 "C23" H 5482 8004 50  0000 R CNN
F 1 "3900uF" H 5482 8095 50  0000 R CNN
F 2 "Capacitor_THT:CP_Radial_D16.0mm_P7.50mm" H 5638 7900 50  0001 C CNN
F 3 "~" H 5600 8050 50  0001 C CNN
	1    5600 8050
	-1   0    0    1   
$EndComp
$Comp
L Device:C C16
U 1 1 5D4EE666
P 6600 7050
F 0 "C16" H 6715 7096 50  0000 L CNN
F 1 "0.1uF" H 6715 7005 50  0000 L CNN
F 2 "Capacitor_SMD:C_0805_2012Metric_Pad1.15x1.40mm_HandSolder" H 6638 6900 50  0001 C CNN
F 3 "~" H 6600 7050 50  0001 C CNN
	1    6600 7050
	1    0    0    -1  
$EndComp
$Comp
L Device:LED D7
U 1 1 5D4EE66C
P 7150 6800
F 0 "D7" V 7097 6878 50  0000 L CNN
F 1 "LED" V 7188 6878 50  0000 L CNN
F 2 "LED_SMD:LED_0805_2012Metric_Pad1.15x1.40mm_HandSolder" H 7150 6800 50  0001 C CNN
F 3 "~" H 7150 6800 50  0001 C CNN
	1    7150 6800
	0    1    1    0   
$EndComp
$Comp
L Device:R R14
U 1 1 5D4EE672
P 7150 7300
F 0 "R14" H 7220 7346 50  0000 L CNN
F 1 "1.8k" H 7220 7255 50  0000 L CNN
F 2 "Resistor_SMD:R_0805_2012Metric_Pad1.15x1.40mm_HandSolder" V 7080 7300 50  0001 C CNN
F 3 "~" H 7150 7300 50  0001 C CNN
	1    7150 7300
	1    0    0    -1  
$EndComp
$Comp
L Device:D D8
U 1 1 5D4EE678
P 4150 7750
F 0 "D8" V 4196 7671 50  0000 R CNN
F 1 "MUR220G" V 4105 7671 50  0000 R CNN
F 2 "Diode_THT:D_DO-41_SOD81_P7.62mm_Horizontal" H 4150 7750 50  0001 C CNN
F 3 "~" H 4150 7750 50  0001 C CNN
	1    4150 7750
	0    -1   -1   0   
$EndComp
$Comp
L Device:D D9
U 1 1 5D4EE67E
P 4650 7750
F 0 "D9" V 4696 7671 50  0000 R CNN
F 1 "MUR220G" V 4605 7671 50  0000 R CNN
F 2 "Diode_THT:D_DO-41_SOD81_P7.62mm_Horizontal" H 4650 7750 50  0001 C CNN
F 3 "~" H 4650 7750 50  0001 C CNN
	1    4650 7750
	0    -1   -1   0   
$EndComp
$Comp
L Device:D D10
U 1 1 5D4EE684
P 4150 8350
F 0 "D10" V 4196 8271 50  0000 R CNN
F 1 "MUR220G" V 4105 8271 50  0000 R CNN
F 2 "Diode_THT:D_DO-41_SOD81_P7.62mm_Horizontal" H 4150 8350 50  0001 C CNN
F 3 "~" H 4150 8350 50  0001 C CNN
	1    4150 8350
	0    -1   -1   0   
$EndComp
$Comp
L Device:D D11
U 1 1 5D4EE68A
P 4650 8350
F 0 "D11" V 4696 8271 50  0000 R CNN
F 1 "MUR220G" V 4605 8271 50  0000 R CNN
F 2 "Diode_THT:D_DO-41_SOD81_P7.62mm_Horizontal" H 4650 8350 50  0001 C CNN
F 3 "~" H 4650 8350 50  0001 C CNN
	1    4650 8350
	0    -1   -1   0   
$EndComp
$Comp
L Device:C C22
U 1 1 5D4EE690
P 5200 7750
F 0 "C22" H 5315 7796 50  0000 L CNN
F 1 "0.1uF" H 5315 7705 50  0000 L CNN
F 2 "Capacitor_THT:C_Rect_L10.3mm_W5.7mm_P7.50mm_MKS4" H 5238 7600 50  0001 C CNN
F 3 "~" H 5200 7750 50  0001 C CNN
	1    5200 7750
	1    0    0    -1  
$EndComp
$Comp
L Device:C C25
U 1 1 5D4EE696
P 5200 8350
F 0 "C25" H 5315 8396 50  0000 L CNN
F 1 "0.1uF" H 5315 8305 50  0000 L CNN
F 2 "Capacitor_THT:C_Rect_L10.3mm_W5.7mm_P7.50mm_MKS4" H 5238 8200 50  0001 C CNN
F 3 "~" H 5200 8350 50  0001 C CNN
	1    5200 8350
	1    0    0    -1  
$EndComp
$Comp
L Device:C C21
U 1 1 5D4EE69C
P 3600 7750
F 0 "C21" H 3715 7796 50  0000 L CNN
F 1 "0.1uF" H 3715 7705 50  0000 L CNN
F 2 "Capacitor_THT:C_Rect_L10.3mm_W5.7mm_P7.50mm_MKS4" H 3638 7600 50  0001 C CNN
F 3 "~" H 3600 7750 50  0001 C CNN
	1    3600 7750
	1    0    0    -1  
$EndComp
$Comp
L Device:C C24
U 1 1 5D4EE6A2
P 3600 8350
F 0 "C24" H 3715 8396 50  0000 L CNN
F 1 "0.1uF" H 3715 8305 50  0000 L CNN
F 2 "Capacitor_THT:C_Rect_L10.3mm_W5.7mm_P7.50mm_MKS4" H 3638 8200 50  0001 C CNN
F 3 "~" H 3600 8350 50  0001 C CNN
	1    3600 8350
	1    0    0    -1  
$EndComp
Wire Wire Line
	3600 7900 4150 7900
Wire Wire Line
	4650 7900 5200 7900
Wire Wire Line
	3600 8200 4150 8200
Wire Wire Line
	4650 8200 5200 8200
Wire Wire Line
	4650 7900 4650 8100
Wire Wire Line
	4150 7900 4150 8000
Wire Wire Line
	3350 8000 4150 8000
Connection ~ 4150 8000
Wire Wire Line
	4150 8000 4150 8200
Wire Wire Line
	3350 8100 4650 8100
Connection ~ 4650 8100
Wire Wire Line
	4650 8100 4650 8200
Wire Wire Line
	5200 7600 5600 7600
Wire Wire Line
	5600 7600 5600 7900
Connection ~ 5200 7600
Wire Wire Line
	5200 8500 5600 8500
Wire Wire Line
	5600 8500 5600 8200
Connection ~ 5200 8500
Wire Wire Line
	5600 8500 6050 8500
Wire Wire Line
	6600 7500 6600 7200
Connection ~ 5600 8500
Wire Wire Line
	6600 6600 6600 6900
Wire Wire Line
	6600 6600 7150 6600
Wire Wire Line
	7150 6600 7150 6650
Wire Wire Line
	7150 6950 7150 7150
Wire Wire Line
	7150 7450 7150 7500
Connection ~ 5600 7600
Connection ~ 7150 6600
Connection ~ 7150 7500
Wire Wire Line
	3600 7600 4150 7600
Connection ~ 4150 7900
Connection ~ 4150 7600
Wire Wire Line
	3600 8500 4150 8500
Connection ~ 4150 8500
Connection ~ 4150 8200
Wire Wire Line
	4150 7600 4650 7600
Connection ~ 4650 7900
Connection ~ 4650 7600
Wire Wire Line
	4650 7600 5200 7600
Wire Wire Line
	4150 8500 4650 8500
Connection ~ 4650 8500
Wire Wire Line
	4650 8500 5200 8500
Connection ~ 4650 8200
$Comp
L LT3094EMSE:LT3094EMSE U3
U 1 1 5D5205EE
P 8150 6600
F 0 "U3" H 8950 7087 60  0000 C CNN
F 1 "LT3094EMSE" H 8950 6981 60  0000 C CNN
F 2 "Package_SO:MSOP-12-1EP_3x4mm_P0.65mm_EP1.65x2.85mm" H 8950 6940 60  0001 C CNN
F 3 "" H 8150 6600 60  0000 C CNN
	1    8150 6600
	1    0    0    -1  
$EndComp
Wire Wire Line
	7150 6600 7650 6600
Wire Wire Line
	8150 6800 8050 6800
Wire Wire Line
	8050 6800 8050 6700
Connection ~ 8050 6600
Wire Wire Line
	8050 6600 8150 6600
Wire Wire Line
	8150 6700 8050 6700
Connection ~ 8050 6700
Wire Wire Line
	8050 6700 8050 6600
$Comp
L Device:C C17
U 1 1 5D54B79C
P 7650 7050
F 0 "C17" H 7765 7096 50  0000 L CNN
F 1 "4.7uF" H 7765 7005 50  0000 L CNN
F 2 "Capacitor_SMD:C_0805_2012Metric_Pad1.15x1.40mm_HandSolder" H 7688 6900 50  0001 C CNN
F 3 "~" H 7650 7050 50  0001 C CNN
	1    7650 7050
	1    0    0    -1  
$EndComp
Wire Wire Line
	7650 6900 7650 6600
Connection ~ 7650 6600
Wire Wire Line
	7650 6600 8050 6600
Wire Wire Line
	7650 7200 7650 7500
Connection ~ 7650 7500
Wire Wire Line
	7650 7500 7150 7500
Wire Wire Line
	9850 6900 9850 7500
Wire Wire Line
	7650 7500 8150 7500
Wire Wire Line
	9750 6900 9850 6900
Wire Wire Line
	9850 6500 9850 6000
Wire Wire Line
	9850 6000 8050 6000
Wire Wire Line
	8050 6000 8050 6600
Wire Wire Line
	9750 6500 9850 6500
NoConn ~ 8150 6900
$Comp
L Device:R R11
U 1 1 5D574469
P 10200 7250
F 0 "R11" H 10270 7296 50  0000 L CNN
F 1 "147k" H 10270 7205 50  0000 L CNN
F 2 "Resistor_SMD:R_0805_2012Metric_Pad1.15x1.40mm_HandSolder" V 10130 7250 50  0001 C CNN
F 3 "~" H 10200 7250 50  0001 C CNN
	1    10200 7250
	1    0    0    -1  
$EndComp
$Comp
L Device:C C18
U 1 1 5D5748F2
P 10550 7250
F 0 "C18" H 10665 7296 50  0000 L CNN
F 1 "4.7uF" H 10665 7205 50  0000 L CNN
F 2 "Capacitor_SMD:C_0805_2012Metric_Pad1.15x1.40mm_HandSolder" H 10588 7100 50  0001 C CNN
F 3 "~" H 10550 7250 50  0001 C CNN
	1    10550 7250
	1    0    0    -1  
$EndComp
Wire Wire Line
	9750 7000 10200 7000
Wire Wire Line
	10550 7000 10550 7100
Wire Wire Line
	10200 7100 10200 7000
Connection ~ 10200 7000
Wire Wire Line
	10200 7000 10550 7000
Wire Wire Line
	9850 7500 10200 7500
Wire Wire Line
	10550 7500 10550 7400
Connection ~ 9850 7500
Wire Wire Line
	10200 7400 10200 7500
Connection ~ 10200 7500
Wire Wire Line
	10200 7500 10550 7500
$Comp
L Device:R R12
U 1 1 5D58A36E
P 10950 7250
F 0 "R12" H 11020 7296 50  0000 L CNN
F 1 "49.9k" H 11020 7205 50  0000 L CNN
F 2 "Resistor_SMD:R_0805_2012Metric_Pad1.15x1.40mm_HandSolder" V 10880 7250 50  0001 C CNN
F 3 "~" H 10950 7250 50  0001 C CNN
	1    10950 7250
	1    0    0    -1  
$EndComp
$Comp
L Device:R R10
U 1 1 5D58AB00
P 10950 6750
F 0 "R10" H 11020 6796 50  0000 L CNN
F 1 "453k" H 11020 6705 50  0000 L CNN
F 2 "Resistor_SMD:R_0805_2012Metric_Pad1.15x1.40mm_HandSolder" V 10880 6750 50  0001 C CNN
F 3 "~" H 10950 6750 50  0001 C CNN
	1    10950 6750
	1    0    0    -1  
$EndComp
Wire Wire Line
	10550 7500 10950 7500
Wire Wire Line
	10950 7500 10950 7400
Connection ~ 10550 7500
Wire Wire Line
	8150 7100 8150 7500
Connection ~ 8150 7500
Wire Wire Line
	8150 7500 9850 7500
Wire Wire Line
	8150 7000 8050 7000
Wire Wire Line
	8050 7000 8050 7600
Wire Wire Line
	8050 7600 11250 7600
Wire Wire Line
	11250 7600 11250 7000
Wire Wire Line
	11250 7000 10950 7000
Wire Wire Line
	10950 7000 10950 7100
Wire Wire Line
	10950 6900 10950 7000
Connection ~ 10950 7000
Wire Wire Line
	9750 6600 9850 6600
Wire Wire Line
	9750 6700 9850 6700
Wire Wire Line
	9850 6700 9850 6600
Connection ~ 9850 6600
Wire Wire Line
	9850 6600 10950 6600
$Comp
L Device:C C19
U 1 1 5D5B0C30
P 11450 7250
F 0 "C19" H 11565 7296 50  0000 L CNN
F 1 "10uF" H 11565 7205 50  0000 L CNN
F 2 "Capacitor_SMD:C_1206_3216Metric_Pad1.42x1.75mm_HandSolder" H 11488 7100 50  0001 C CNN
F 3 "~" H 11450 7250 50  0001 C CNN
	1    11450 7250
	1    0    0    -1  
$EndComp
$Comp
L Device:C C20
U 1 1 5D5B1954
P 11850 7250
F 0 "C20" H 11965 7296 50  0000 L CNN
F 1 "0uF" H 11965 7205 50  0000 L CNN
F 2 "Capacitor_SMD:C_1206_3216Metric_Pad1.42x1.75mm_HandSolder" H 11888 7100 50  0001 C CNN
F 3 "~" H 11850 7250 50  0001 C CNN
	1    11850 7250
	1    0    0    -1  
$EndComp
Wire Wire Line
	10950 7500 11450 7500
Wire Wire Line
	11850 7500 11850 7400
Connection ~ 10950 7500
Wire Wire Line
	11450 7400 11450 7500
Connection ~ 11450 7500
Wire Wire Line
	11450 7500 11850 7500
Wire Wire Line
	10800 6800 10800 6950
Wire Wire Line
	9750 6800 10800 6800
Connection ~ 10950 6600
Wire Wire Line
	8000 1400 8000 2900
NoConn ~ 9750 7100
NoConn ~ 8250 1800
$Comp
L LT3045EMSE-1_PBF:LT3045EMSE-1#PBF U2
U 1 1 5DA615B0
P 9150 4000
F 0 "U2" H 9100 4800 50  0000 L CNN
F 1 "LT3045EMSE" H 8900 4700 50  0000 L CNN
F 2 "Package_SO:MSOP-12-1EP_3x4mm_P0.65mm_EP1.65x2.85mm" H 9150 4000 50  0001 L BNN
F 3 "" H 9150 4000 50  0001 L BNN
F 4 "IC REG LINEAR 500MA 12MSOP" H 9150 4000 50  0001 L BNN "Field4"
F 5 "TSSOP-12 Linear Technology" H 9150 4000 50  0001 L BNN "Field5"
F 6 "Linear Technology" H 9150 4000 50  0001 L BNN "Field6"
F 7 "4.33 USD" H 9150 4000 50  0001 L BNN "Field7"
F 8 "LT3045EMSE-1#PBF" H 9150 4000 50  0001 L BNN "Field8"
	1    9150 4000
	1    0    0    -1  
$EndComp
$Comp
L Device:C C13
U 1 1 5DA615C2
P 6600 4350
F 0 "C13" H 6715 4396 50  0000 L CNN
F 1 "0.1uF" H 6715 4305 50  0000 L CNN
F 2 "Capacitor_SMD:C_0805_2012Metric_Pad1.15x1.40mm_HandSolder" H 6638 4200 50  0001 C CNN
F 3 "~" H 6600 4350 50  0001 C CNN
	1    6600 4350
	1    0    0    -1  
$EndComp
$Comp
L Device:LED D6
U 1 1 5DA615C8
P 7150 4100
F 0 "D6" V 7189 3983 50  0000 R CNN
F 1 "LED" V 7098 3983 50  0000 R CNN
F 2 "LED_SMD:LED_0805_2012Metric_Pad1.15x1.40mm_HandSolder" H 7150 4100 50  0001 C CNN
F 3 "~" H 7150 4100 50  0001 C CNN
	1    7150 4100
	0    -1   -1   0   
$EndComp
$Comp
L Device:R R7
U 1 1 5DA615CE
P 7150 4600
F 0 "R7" H 7220 4646 50  0000 L CNN
F 1 "1.8k" H 7220 4555 50  0000 L CNN
F 2 "Resistor_SMD:R_0805_2012Metric_Pad1.15x1.40mm_HandSolder" V 7080 4600 50  0001 C CNN
F 3 "~" H 7150 4600 50  0001 C CNN
	1    7150 4600
	1    0    0    -1  
$EndComp
Wire Wire Line
	6600 4800 6600 4500
Wire Wire Line
	6600 3900 6600 4200
Wire Wire Line
	6600 3900 7150 3900
Wire Wire Line
	7150 3900 7150 3950
Wire Wire Line
	7150 4250 7150 4450
Wire Wire Line
	7150 4750 7150 4800
Wire Wire Line
	7150 4800 6600 4800
$Comp
L Device:C C14
U 1 1 5DA61631
P 7700 4350
F 0 "C14" H 7815 4396 50  0000 L CNN
F 1 "4.7uF" H 7815 4305 50  0000 L CNN
F 2 "Capacitor_SMD:C_0805_2012Metric_Pad1.15x1.40mm_HandSolder" H 7738 4200 50  0001 C CNN
F 3 "~" H 7700 4350 50  0001 C CNN
	1    7700 4350
	1    0    0    -1  
$EndComp
Wire Wire Line
	7150 3900 7700 3900
Wire Wire Line
	7700 3900 7700 4200
Connection ~ 7150 3900
Wire Wire Line
	7700 4500 7700 4800
Wire Wire Line
	7700 4800 7150 4800
Connection ~ 7150 4800
Wire Wire Line
	7700 3900 8150 3900
Connection ~ 7700 3900
Wire Wire Line
	8250 3700 8150 3700
Wire Wire Line
	8150 3700 8150 3900
Connection ~ 8150 3900
Wire Wire Line
	8150 3900 8250 3900
Wire Wire Line
	7700 4800 10150 4800
Wire Wire Line
	10150 4800 10150 4400
Wire Wire Line
	10150 4400 10050 4400
Connection ~ 7700 4800
Wire Wire Line
	8150 3900 8150 4000
Wire Wire Line
	8250 4000 8150 4000
Connection ~ 8150 4000
Wire Wire Line
	8150 4000 8150 4100
Wire Wire Line
	8250 4100 8150 4100
Wire Wire Line
	8250 3800 8000 3800
Wire Wire Line
	7700 4800 7700 5300
Wire Wire Line
	7700 5300 8000 5300
Wire Wire Line
	10050 3500 10150 3500
Wire Wire Line
	10150 3500 10150 4400
Connection ~ 10150 4400
$Comp
L Device:R R8
U 1 1 5DA61652
P 10250 5050
F 0 "R8" H 10320 5096 50  0000 L CNN
F 1 "147k" H 10320 5005 50  0000 L CNN
F 2 "Resistor_SMD:R_0805_2012Metric_Pad1.15x1.40mm_HandSolder" V 10180 5050 50  0001 C CNN
F 3 "~" H 10250 5050 50  0001 C CNN
	1    10250 5050
	1    0    0    -1  
$EndComp
Wire Wire Line
	10050 4100 10250 4100
Wire Wire Line
	10250 4100 10250 4800
$Comp
L Device:C C15
U 1 1 5DA6165A
P 10600 5050
F 0 "C15" H 10715 5096 50  0000 L CNN
F 1 "4.7uF" H 10715 5005 50  0000 L CNN
F 2 "Capacitor_SMD:C_0805_2012Metric_Pad1.15x1.40mm_HandSolder" H 10638 4900 50  0001 C CNN
F 3 "~" H 10600 5050 50  0001 C CNN
	1    10600 5050
	1    0    0    -1  
$EndComp
Wire Wire Line
	10250 4800 10600 4800
Wire Wire Line
	10600 4800 10600 4900
Connection ~ 10250 4800
Wire Wire Line
	10250 4800 10250 4900
Wire Wire Line
	8000 5300 10250 5300
Wire Wire Line
	10600 5300 10600 5200
Connection ~ 8000 5300
Wire Wire Line
	10250 5200 10250 5300
Connection ~ 10250 5300
Wire Wire Line
	10250 5300 10600 5300
$Comp
L Device:C C11
U 1 1 5DA6166A
P 11400 4200
F 0 "C11" H 11515 4246 50  0000 L CNN
F 1 "10uF" H 11515 4155 50  0000 L CNN
F 2 "Capacitor_SMD:C_1206_3216Metric_Pad1.42x1.75mm_HandSolder" H 11438 4050 50  0001 C CNN
F 3 "~" H 11400 4200 50  0001 C CNN
	1    11400 4200
	1    0    0    -1  
$EndComp
$Comp
L Device:R R9
U 1 1 5DA61670
P 11000 5050
F 0 "R9" H 11070 5096 50  0000 L CNN
F 1 "49.9k" H 11070 5005 50  0000 L CNN
F 2 "Resistor_SMD:R_0805_2012Metric_Pad1.15x1.40mm_HandSolder" V 10930 5050 50  0001 C CNN
F 3 "~" H 11000 5050 50  0001 C CNN
	1    11000 5050
	1    0    0    -1  
$EndComp
$Comp
L Device:R R6
U 1 1 5DA61676
P 11000 4550
F 0 "R6" H 11070 4596 50  0000 L CNN
F 1 "453k" H 11070 4505 50  0000 L CNN
F 2 "Resistor_SMD:R_0805_2012Metric_Pad1.15x1.40mm_HandSolder" V 10930 4550 50  0001 C CNN
F 3 "~" H 11000 4550 50  0001 C CNN
	1    11000 4550
	1    0    0    -1  
$EndComp
Wire Wire Line
	11000 4700 11000 4800
Wire Wire Line
	10600 5300 11000 5300
Wire Wire Line
	11000 5300 11000 5200
Connection ~ 10600 5300
Wire Wire Line
	10050 4000 10350 4000
Wire Wire Line
	10350 4000 10350 4700
Wire Wire Line
	10350 4700 10700 4700
Wire Wire Line
	10700 4700 10700 4800
Wire Wire Line
	10700 4800 11000 4800
Connection ~ 11000 4800
Wire Wire Line
	11000 4800 11000 4900
Wire Wire Line
	11000 3700 11000 4400
Wire Wire Line
	10050 3800 10050 3700
Connection ~ 10050 3700
Wire Wire Line
	10050 3700 11000 3700
$Comp
L Device:C C12
U 1 1 5DA6168B
P 11850 4200
F 0 "C12" H 11965 4246 50  0000 L CNN
F 1 "0uF" H 11965 4155 50  0000 L CNN
F 2 "Capacitor_SMD:C_1206_3216Metric_Pad1.42x1.75mm_HandSolder" H 11888 4050 50  0001 C CNN
F 3 "~" H 11850 4200 50  0001 C CNN
	1    11850 4200
	1    0    0    -1  
$EndComp
Wire Wire Line
	11000 5300 11400 5300
Wire Wire Line
	11400 5300 11400 4350
Connection ~ 11000 5300
Wire Wire Line
	11850 5300 11400 5300
Wire Wire Line
	11850 4350 11850 5300
Connection ~ 11400 5300
Connection ~ 11000 3700
Wire Wire Line
	11400 4050 11400 3900
Wire Wire Line
	10050 3900 11400 3900
Wire Wire Line
	11850 3700 12250 3700
Connection ~ 11850 3700
Wire Wire Line
	8000 3800 8000 5300
NoConn ~ 8250 4200
$Comp
L Device:C C26
U 1 1 5DB7198C
P 6600 9050
F 0 "C26" H 6715 9096 50  0000 L CNN
F 1 "0.1uF" H 6715 9005 50  0000 L CNN
F 2 "Capacitor_SMD:C_0805_2012Metric_Pad1.15x1.40mm_HandSolder" H 6638 8900 50  0001 C CNN
F 3 "~" H 6600 9050 50  0001 C CNN
	1    6600 9050
	1    0    0    -1  
$EndComp
$Comp
L Device:LED D12
U 1 1 5DB71992
P 7150 8800
F 0 "D12" V 7097 8878 50  0000 L CNN
F 1 "LED" V 7188 8878 50  0000 L CNN
F 2 "LED_SMD:LED_0805_2012Metric_Pad1.15x1.40mm_HandSolder" H 7150 8800 50  0001 C CNN
F 3 "~" H 7150 8800 50  0001 C CNN
	1    7150 8800
	0    1    1    0   
$EndComp
$Comp
L Device:R R18
U 1 1 5DB71998
P 7150 9300
F 0 "R18" H 7220 9346 50  0000 L CNN
F 1 "1.8k" H 7220 9255 50  0000 L CNN
F 2 "Resistor_SMD:R_0805_2012Metric_Pad1.15x1.40mm_HandSolder" V 7080 9300 50  0001 C CNN
F 3 "~" H 7150 9300 50  0001 C CNN
	1    7150 9300
	1    0    0    -1  
$EndComp
Wire Wire Line
	6600 9500 6600 9200
Wire Wire Line
	6600 8600 6600 8900
Wire Wire Line
	6600 8600 7150 8600
Wire Wire Line
	7150 8600 7150 8650
Wire Wire Line
	7150 8950 7150 9150
Wire Wire Line
	7150 9450 7150 9500
Wire Wire Line
	7150 9500 6600 9500
Connection ~ 7150 8600
Connection ~ 7150 9500
$Comp
L LT3094EMSE:LT3094EMSE U4
U 1 1 5DB719FD
P 8150 8600
F 0 "U4" H 8950 9087 60  0000 C CNN
F 1 "LT3094EMSE" H 8950 8981 60  0000 C CNN
F 2 "Package_SO:MSOP-12-1EP_3x4mm_P0.65mm_EP1.65x2.85mm" H 8950 8940 60  0001 C CNN
F 3 "" H 8150 8600 60  0000 C CNN
	1    8150 8600
	1    0    0    -1  
$EndComp
Wire Wire Line
	7150 8600 7650 8600
Wire Wire Line
	8150 8800 8050 8800
Wire Wire Line
	8050 8800 8050 8700
Connection ~ 8050 8600
Wire Wire Line
	8050 8600 8150 8600
Wire Wire Line
	8150 8700 8050 8700
Connection ~ 8050 8700
Wire Wire Line
	8050 8700 8050 8600
$Comp
L Device:C C27
U 1 1 5DB71A0B
P 7650 9050
F 0 "C27" H 7765 9096 50  0000 L CNN
F 1 "4.7uF" H 7765 9005 50  0000 L CNN
F 2 "Capacitor_SMD:C_0805_2012Metric_Pad1.15x1.40mm_HandSolder" H 7688 8900 50  0001 C CNN
F 3 "~" H 7650 9050 50  0001 C CNN
	1    7650 9050
	1    0    0    -1  
$EndComp
Wire Wire Line
	7650 8900 7650 8600
Connection ~ 7650 8600
Wire Wire Line
	7650 8600 8050 8600
Wire Wire Line
	7650 9200 7650 9500
Connection ~ 7650 9500
Wire Wire Line
	7650 9500 7150 9500
Wire Wire Line
	9850 8900 9850 9500
Wire Wire Line
	7650 9500 8150 9500
Wire Wire Line
	9750 8900 9850 8900
Wire Wire Line
	9850 8500 9850 8000
Wire Wire Line
	9850 8000 8050 8000
Wire Wire Line
	8050 8000 8050 8600
Wire Wire Line
	9750 8500 9850 8500
NoConn ~ 8150 8900
$Comp
L Device:R R16
U 1 1 5DB71A1F
P 10200 9250
F 0 "R16" H 10270 9296 50  0000 L CNN
F 1 "147k" H 10270 9205 50  0000 L CNN
F 2 "Resistor_SMD:R_0805_2012Metric_Pad1.15x1.40mm_HandSolder" V 10130 9250 50  0001 C CNN
F 3 "~" H 10200 9250 50  0001 C CNN
	1    10200 9250
	1    0    0    -1  
$EndComp
$Comp
L Device:C C28
U 1 1 5DB71A25
P 10550 9250
F 0 "C28" H 10665 9296 50  0000 L CNN
F 1 "4.7uF" H 10665 9205 50  0000 L CNN
F 2 "Capacitor_SMD:C_0805_2012Metric_Pad1.15x1.40mm_HandSolder" H 10588 9100 50  0001 C CNN
F 3 "~" H 10550 9250 50  0001 C CNN
	1    10550 9250
	1    0    0    -1  
$EndComp
Wire Wire Line
	9750 9000 10200 9000
Wire Wire Line
	10550 9000 10550 9100
Wire Wire Line
	10200 9100 10200 9000
Connection ~ 10200 9000
Wire Wire Line
	10200 9000 10550 9000
Wire Wire Line
	9850 9500 10200 9500
Wire Wire Line
	10550 9500 10550 9400
Connection ~ 9850 9500
Wire Wire Line
	10200 9400 10200 9500
Connection ~ 10200 9500
Wire Wire Line
	10200 9500 10550 9500
$Comp
L Device:R R17
U 1 1 5DB71A36
P 10950 9250
F 0 "R17" H 11020 9296 50  0000 L CNN
F 1 "49.9k" H 11020 9205 50  0000 L CNN
F 2 "Resistor_SMD:R_0805_2012Metric_Pad1.15x1.40mm_HandSolder" V 10880 9250 50  0001 C CNN
F 3 "~" H 10950 9250 50  0001 C CNN
	1    10950 9250
	1    0    0    -1  
$EndComp
$Comp
L Device:R R15
U 1 1 5DB71A3C
P 10950 8750
F 0 "R15" H 11020 8796 50  0000 L CNN
F 1 "453k" H 11020 8705 50  0000 L CNN
F 2 "Resistor_SMD:R_0805_2012Metric_Pad1.15x1.40mm_HandSolder" V 10880 8750 50  0001 C CNN
F 3 "~" H 10950 8750 50  0001 C CNN
	1    10950 8750
	1    0    0    -1  
$EndComp
Wire Wire Line
	10550 9500 10950 9500
Wire Wire Line
	10950 9500 10950 9400
Connection ~ 10550 9500
Wire Wire Line
	8150 9100 8150 9500
Connection ~ 8150 9500
Wire Wire Line
	8150 9500 9850 9500
Wire Wire Line
	8150 9000 8050 9000
Wire Wire Line
	8050 9000 8050 9600
Wire Wire Line
	8050 9600 11250 9600
Wire Wire Line
	11250 9600 11250 9000
Wire Wire Line
	11250 9000 10950 9000
Wire Wire Line
	10950 9000 10950 9100
Wire Wire Line
	10950 8900 10950 9000
Connection ~ 10950 9000
Wire Wire Line
	9750 8600 9850 8600
Wire Wire Line
	9750 8700 9850 8700
Wire Wire Line
	9850 8700 9850 8600
Connection ~ 9850 8600
Wire Wire Line
	9850 8600 10950 8600
$Comp
L Device:C C29
U 1 1 5DB71A55
P 11450 9250
F 0 "C29" H 11565 9296 50  0000 L CNN
F 1 "10uF" H 11565 9205 50  0000 L CNN
F 2 "Capacitor_SMD:C_1206_3216Metric_Pad1.42x1.75mm_HandSolder" H 11488 9100 50  0001 C CNN
F 3 "~" H 11450 9250 50  0001 C CNN
	1    11450 9250
	1    0    0    -1  
$EndComp
$Comp
L Device:C C30
U 1 1 5DB71A5B
P 11850 9250
F 0 "C30" H 11965 9296 50  0000 L CNN
F 1 "0uF" H 11965 9205 50  0000 L CNN
F 2 "Capacitor_SMD:C_1206_3216Metric_Pad1.42x1.75mm_HandSolder" H 11888 9100 50  0001 C CNN
F 3 "~" H 11850 9250 50  0001 C CNN
	1    11850 9250
	1    0    0    -1  
$EndComp
Wire Wire Line
	10950 9500 11450 9500
Wire Wire Line
	11850 9500 11850 9400
Connection ~ 10950 9500
Wire Wire Line
	11450 9400 11450 9500
Connection ~ 11450 9500
Wire Wire Line
	11450 9500 11850 9500
Wire Wire Line
	10800 8800 10800 8950
Wire Wire Line
	10800 8950 11450 8950
Wire Wire Line
	11450 9100 11450 8950
Wire Wire Line
	9750 8800 10800 8800
Connection ~ 10950 8600
NoConn ~ 9750 9100
$Sheet
S 13250 5700 1200 250 
U 5DC6EC70
F0 "TPA6120A2_amplifier" 50
F1 "TPA6120A2_amplifier.sch" 50
$EndSheet
Text GLabel 12500 1300 2    50   Output ~ 0
LVCC+
Text GLabel 12500 3700 2    50   Output ~ 0
RVCC+
Text GLabel 12800 6600 2    50   Output ~ 0
LVCC-
Text GLabel 12850 8600 2    50   Output ~ 0
RVCC-
$Comp
L power:GNDREF #PWR04
U 1 1 5DD896C6
P 11850 9500
F 0 "#PWR04" H 11850 9250 50  0001 C CNN
F 1 "GNDREF" H 11855 9327 50  0001 C CNN
F 2 "" H 11850 9500 50  0001 C CNN
F 3 "" H 11850 9500 50  0001 C CNN
	1    11850 9500
	1    0    0    -1  
$EndComp
Connection ~ 11850 9500
$Comp
L power:GNDREF #PWR03
U 1 1 5DD8A0DC
P 11850 7500
F 0 "#PWR03" H 11850 7250 50  0001 C CNN
F 1 "GNDREF" H 11855 7327 50  0001 C CNN
F 2 "" H 11850 7500 50  0001 C CNN
F 3 "" H 11850 7500 50  0001 C CNN
	1    11850 7500
	1    0    0    -1  
$EndComp
Connection ~ 11850 7500
$Comp
L power:GNDREF #PWR02
U 1 1 5DD8A674
P 11850 5300
F 0 "#PWR02" H 11850 5050 50  0001 C CNN
F 1 "GNDREF" H 11855 5127 50  0001 C CNN
F 2 "" H 11850 5300 50  0001 C CNN
F 3 "" H 11850 5300 50  0001 C CNN
	1    11850 5300
	1    0    0    -1  
$EndComp
Connection ~ 11850 5300
$Comp
L power:GNDREF #PWR01
U 1 1 5DD8AB99
P 11850 2900
F 0 "#PWR01" H 11850 2650 50  0001 C CNN
F 1 "GNDREF" H 11855 2727 50  0001 C CNN
F 2 "" H 11850 2900 50  0001 C CNN
F 3 "" H 11850 2900 50  0001 C CNN
	1    11850 2900
	1    0    0    -1  
$EndComp
Connection ~ 11850 2900
Wire Wire Line
	6600 1500 5600 1500
Wire Wire Line
	5600 1500 5600 2700
Connection ~ 6600 1500
Wire Wire Line
	6600 2400 6100 2400
Wire Wire Line
	6100 2400 6100 3600
Connection ~ 6600 2400
Connection ~ 6100 3600
Wire Wire Line
	6600 3900 6600 2700
Wire Wire Line
	5600 2700 6600 2700
Connection ~ 6600 3900
Wire Wire Line
	6600 4800 6100 4800
Wire Wire Line
	6100 4800 6100 3600
Connection ~ 6600 4800
Wire Wire Line
	6600 6600 5600 6600
Wire Wire Line
	5600 6600 5600 7600
Connection ~ 6600 6600
Wire Wire Line
	6050 8500 6050 7500
Wire Wire Line
	6050 7500 6600 7500
Connection ~ 6050 8500
Connection ~ 6600 7500
Wire Wire Line
	6600 7500 7150 7500
Wire Wire Line
	6600 7600 6600 8600
Wire Wire Line
	5600 7600 6600 7600
Connection ~ 6600 8600
Wire Wire Line
	6050 8500 6050 9500
Wire Wire Line
	6050 9500 6600 9500
Connection ~ 6600 9500
$Comp
L Device:R R1
U 1 1 5DA8CC9A
P 12250 1800
F 0 "R1" H 12320 1846 50  0000 L CNN
F 1 "0" H 12320 1755 50  0000 L CNN
F 2 "Resistor_SMD:R_0805_2012Metric_Pad1.15x1.40mm_HandSolder" V 12180 1800 50  0001 C CNN
F 3 "~" H 12250 1800 50  0001 C CNN
	1    12250 1800
	1    0    0    -1  
$EndComp
Wire Wire Line
	12250 1650 12250 1300
Connection ~ 12250 1300
Wire Wire Line
	12250 1950 12250 3700
Connection ~ 12250 3700
Wire Wire Line
	12250 1300 12500 1300
Wire Wire Line
	12250 3700 12500 3700
$Comp
L Device:R R13
U 1 1 5DAEC5A2
P 12300 7250
F 0 "R13" H 12370 7296 50  0000 L CNN
F 1 "0" H 12370 7205 50  0000 L CNN
F 2 "Resistor_SMD:R_0805_2012Metric_Pad1.15x1.40mm_HandSolder" V 12230 7250 50  0001 C CNN
F 3 "~" H 12300 7250 50  0001 C CNN
	1    12300 7250
	1    0    0    -1  
$EndComp
Wire Wire Line
	12300 7400 12300 8600
Connection ~ 12300 8600
Wire Wire Line
	12300 8600 12850 8600
Wire Wire Line
	12300 7100 12300 6600
Connection ~ 12300 6600
Wire Wire Line
	12300 6600 12800 6600
Wire Wire Line
	10800 6950 11450 6950
Connection ~ 11850 6600
Wire Wire Line
	11850 6600 12300 6600
Wire Wire Line
	11450 7100 11450 6950
Connection ~ 11850 8600
Wire Wire Line
	11850 8600 12300 8600
Wire Wire Line
	10950 8600 11850 8600
Wire Wire Line
	11850 8600 11850 9100
Wire Wire Line
	10950 6600 11850 6600
Wire Wire Line
	11850 6600 11850 7100
Wire Wire Line
	11000 1300 11850 1300
Wire Wire Line
	11850 1300 11850 1650
Wire Wire Line
	11000 3700 11850 3700
Wire Wire Line
	11850 3700 11850 4050
$EndSCHEMATC
