EESchema Schematic File Version 4
EELAYER 30 0
EELAYER END
$Descr A4 11693 8268
encoding utf-8
Sheet 2 2
Title "TPA6120 based headphone amplifier rev 1.0.0"
Date "2019-12-08"
Rev "1"
Comp "Cocoacrumbs"
Comment1 ""
Comment2 ""
Comment3 ""
Comment4 ""
$EndDescr
$Comp
L TPA6120A2DWPR:TPA6120A2DWPR U5
U 1 1 5DC6F954
P 5650 5150
F 0 "U5" H 6950 5537 60  0000 C CNN
F 1 "TPA6120A2DWPR" H 6950 5431 60  0000 C CNN
F 2 "Package_SO:Infineon_PG-DSO-20-30" H 6950 5390 60  0001 C CNN
F 3 "" H 5650 5150 60  0000 C CNN
	1    5650 5150
	0    -1   -1   0   
$EndComp
$Comp
L Device:C C31
U 1 1 5DC71706
P 3450 1550
F 0 "C31" H 3565 1596 50  0000 L CNN
F 1 "10uF" H 3565 1505 50  0000 L CNN
F 2 "Capacitor_SMD:C_0805_2012Metric_Pad1.15x1.40mm_HandSolder" H 3488 1400 50  0001 C CNN
F 3 "~" H 3450 1550 50  0001 C CNN
	1    3450 1550
	1    0    0    -1  
$EndComp
$Comp
L Device:C C32
U 1 1 5DC71A9E
P 3900 1550
F 0 "C32" H 4015 1596 50  0000 L CNN
F 1 "0.1uF" H 4015 1505 50  0000 L CNN
F 2 "Capacitor_SMD:C_0805_2012Metric_Pad1.15x1.40mm_HandSolder" H 3938 1400 50  0001 C CNN
F 3 "~" H 3900 1550 50  0001 C CNN
	1    3900 1550
	1    0    0    -1  
$EndComp
$Comp
L Device:C C33
U 1 1 5DC71E7D
P 4350 1550
F 0 "C33" H 4465 1596 50  0000 L CNN
F 1 "0.1uF" H 4465 1505 50  0000 L CNN
F 2 "Capacitor_SMD:C_0805_2012Metric_Pad1.15x1.40mm_HandSolder" H 4388 1400 50  0001 C CNN
F 3 "~" H 4350 1550 50  0001 C CNN
	1    4350 1550
	1    0    0    -1  
$EndComp
Wire Wire Line
	3450 1400 3450 1300
Wire Wire Line
	3450 1300 3900 1300
Wire Wire Line
	4350 1300 4350 1400
Wire Wire Line
	3900 1400 3900 1300
Connection ~ 3900 1300
Wire Wire Line
	3900 1300 4350 1300
Wire Wire Line
	4350 1700 4350 1800
Wire Wire Line
	4350 1800 3900 1800
Wire Wire Line
	3450 1800 3450 1700
Wire Wire Line
	3900 1700 3900 1800
Connection ~ 3900 1800
Wire Wire Line
	3900 1800 3450 1800
Text GLabel 3000 1300 0    50   Input ~ 0
RVCC+
Wire Wire Line
	3300 1300 3450 1300
Connection ~ 3450 1300
$Comp
L power:GNDREF #PWR05
U 1 1 5DC981FD
P 3900 1950
F 0 "#PWR05" H 3900 1700 50  0001 C CNN
F 1 "GNDREF" H 3905 1777 50  0001 C CNN
F 2 "" H 3900 1950 50  0001 C CNN
F 3 "" H 3900 1950 50  0001 C CNN
	1    3900 1950
	1    0    0    -1  
$EndComp
Wire Wire Line
	3900 1800 3900 1950
$Comp
L Device:C C34
U 1 1 5DC9D840
P 3450 2500
F 0 "C34" H 3565 2546 50  0000 L CNN
F 1 "10uF" H 3565 2455 50  0000 L CNN
F 2 "Capacitor_SMD:C_0805_2012Metric_Pad1.15x1.40mm_HandSolder" H 3488 2350 50  0001 C CNN
F 3 "~" H 3450 2500 50  0001 C CNN
	1    3450 2500
	1    0    0    -1  
$EndComp
$Comp
L Device:C C35
U 1 1 5DC9D846
P 3900 2500
F 0 "C35" H 4015 2546 50  0000 L CNN
F 1 "0.1uF" H 4015 2455 50  0000 L CNN
F 2 "Capacitor_SMD:C_0805_2012Metric_Pad1.15x1.40mm_HandSolder" H 3938 2350 50  0001 C CNN
F 3 "~" H 3900 2500 50  0001 C CNN
	1    3900 2500
	1    0    0    -1  
$EndComp
$Comp
L Device:C C36
U 1 1 5DC9D84C
P 4350 2500
F 0 "C36" H 4465 2546 50  0000 L CNN
F 1 "0.1uF" H 4465 2455 50  0000 L CNN
F 2 "Capacitor_SMD:C_0805_2012Metric_Pad1.15x1.40mm_HandSolder" H 4388 2350 50  0001 C CNN
F 3 "~" H 4350 2500 50  0001 C CNN
	1    4350 2500
	1    0    0    -1  
$EndComp
Wire Wire Line
	3450 2350 3450 2250
Wire Wire Line
	3450 2250 3900 2250
Wire Wire Line
	4350 2250 4350 2350
Wire Wire Line
	3900 2350 3900 2250
Connection ~ 3900 2250
Wire Wire Line
	3900 2250 4350 2250
Wire Wire Line
	4350 2650 4350 2750
Wire Wire Line
	4350 2750 3900 2750
Wire Wire Line
	3450 2750 3450 2650
Wire Wire Line
	3900 2650 3900 2750
Connection ~ 3900 2750
Text GLabel 3000 2250 0    50   Input ~ 0
RVCC-
Wire Wire Line
	3300 2250 3450 2250
Connection ~ 3450 2250
$Comp
L power:GNDREF #PWR010
U 1 1 5DC9D861
P 3900 2900
F 0 "#PWR010" H 3900 2650 50  0001 C CNN
F 1 "GNDREF" H 3905 2727 50  0001 C CNN
F 2 "" H 3900 2900 50  0001 C CNN
F 3 "" H 3900 2900 50  0001 C CNN
	1    3900 2900
	1    0    0    -1  
$EndComp
Wire Wire Line
	3900 2750 3900 2900
$Comp
L Device:C C37
U 1 1 5DCA498D
P 3450 5500
F 0 "C37" H 3565 5546 50  0000 L CNN
F 1 "10uF" H 3565 5455 50  0000 L CNN
F 2 "Capacitor_SMD:C_0805_2012Metric_Pad1.15x1.40mm_HandSolder" H 3488 5350 50  0001 C CNN
F 3 "~" H 3450 5500 50  0001 C CNN
	1    3450 5500
	1    0    0    -1  
$EndComp
$Comp
L Device:C C38
U 1 1 5DCA4993
P 3900 5500
F 0 "C38" H 4015 5546 50  0000 L CNN
F 1 "0.1uF" H 4015 5455 50  0000 L CNN
F 2 "Capacitor_SMD:C_0805_2012Metric_Pad1.15x1.40mm_HandSolder" H 3938 5350 50  0001 C CNN
F 3 "~" H 3900 5500 50  0001 C CNN
	1    3900 5500
	1    0    0    -1  
$EndComp
$Comp
L Device:C C39
U 1 1 5DCA4999
P 4350 5500
F 0 "C39" H 4465 5546 50  0000 L CNN
F 1 "0.1uF" H 4465 5455 50  0000 L CNN
F 2 "Capacitor_SMD:C_0805_2012Metric_Pad1.15x1.40mm_HandSolder" H 4388 5350 50  0001 C CNN
F 3 "~" H 4350 5500 50  0001 C CNN
	1    4350 5500
	1    0    0    -1  
$EndComp
Wire Wire Line
	3450 5350 3450 5250
Wire Wire Line
	3450 5250 3900 5250
Wire Wire Line
	4350 5250 4350 5350
Wire Wire Line
	3900 5350 3900 5250
Connection ~ 3900 5250
Wire Wire Line
	3900 5250 4350 5250
Wire Wire Line
	4350 5650 4350 5750
Wire Wire Line
	4350 5750 3900 5750
Wire Wire Line
	3450 5750 3450 5650
Wire Wire Line
	3900 5650 3900 5750
Connection ~ 3900 5750
Wire Wire Line
	3900 5750 3450 5750
Text GLabel 3000 5250 0    50   Input ~ 0
LVCC-
Wire Wire Line
	3300 5250 3450 5250
Connection ~ 3450 5250
$Comp
L power:GNDREF #PWR013
U 1 1 5DCA49AE
P 3900 5900
F 0 "#PWR013" H 3900 5650 50  0001 C CNN
F 1 "GNDREF" H 3905 5727 50  0001 C CNN
F 2 "" H 3900 5900 50  0001 C CNN
F 3 "" H 3900 5900 50  0001 C CNN
	1    3900 5900
	1    0    0    -1  
$EndComp
Wire Wire Line
	3900 5750 3900 5900
$Comp
L Device:C C40
U 1 1 5DCA49B5
P 3450 6450
F 0 "C40" H 3565 6496 50  0000 L CNN
F 1 "10uF" H 3565 6405 50  0000 L CNN
F 2 "Capacitor_SMD:C_0805_2012Metric_Pad1.15x1.40mm_HandSolder" H 3488 6300 50  0001 C CNN
F 3 "~" H 3450 6450 50  0001 C CNN
	1    3450 6450
	1    0    0    -1  
$EndComp
$Comp
L Device:C C41
U 1 1 5DCA49BB
P 3900 6450
F 0 "C41" H 4015 6496 50  0000 L CNN
F 1 "0.1uF" H 4015 6405 50  0000 L CNN
F 2 "Capacitor_SMD:C_0805_2012Metric_Pad1.15x1.40mm_HandSolder" H 3938 6300 50  0001 C CNN
F 3 "~" H 3900 6450 50  0001 C CNN
	1    3900 6450
	1    0    0    -1  
$EndComp
$Comp
L Device:C C42
U 1 1 5DCA49C1
P 4350 6450
F 0 "C42" H 4465 6496 50  0000 L CNN
F 1 "0.1uF" H 4465 6405 50  0000 L CNN
F 2 "Capacitor_SMD:C_0805_2012Metric_Pad1.15x1.40mm_HandSolder" H 4388 6300 50  0001 C CNN
F 3 "~" H 4350 6450 50  0001 C CNN
	1    4350 6450
	1    0    0    -1  
$EndComp
Wire Wire Line
	3450 6300 3450 6200
Wire Wire Line
	3450 6200 3900 6200
Wire Wire Line
	4350 6200 4350 6300
Wire Wire Line
	3900 6300 3900 6200
Connection ~ 3900 6200
Wire Wire Line
	3900 6200 4350 6200
Wire Wire Line
	4350 6600 4350 6700
Wire Wire Line
	4350 6700 3900 6700
Wire Wire Line
	3450 6700 3450 6600
Wire Wire Line
	3900 6600 3900 6700
Connection ~ 3900 6700
Wire Wire Line
	3900 6700 3450 6700
Text GLabel 3000 6200 0    50   Input ~ 0
LVCC+
Wire Wire Line
	3300 6200 3450 6200
Connection ~ 3450 6200
$Comp
L power:GNDREF #PWR014
U 1 1 5DCA49D6
P 3900 6850
F 0 "#PWR014" H 3900 6600 50  0001 C CNN
F 1 "GNDREF" H 3905 6677 50  0001 C CNN
F 2 "" H 3900 6850 50  0001 C CNN
F 3 "" H 3900 6850 50  0001 C CNN
	1    3900 6850
	1    0    0    -1  
$EndComp
Wire Wire Line
	3900 6700 3900 6850
$Comp
L Device:R R26
U 1 1 5DCAB329
P 6350 5750
F 0 "R26" V 6150 5750 50  0000 C CNN
F 1 "39.2" V 6250 5750 50  0000 C CNN
F 2 "Resistor_SMD:R_0805_2012Metric_Pad1.15x1.40mm_HandSolder" V 6280 5750 50  0001 C CNN
F 3 "~" H 6350 5750 50  0001 C CNN
	1    6350 5750
	0    -1   -1   0   
$EndComp
$Comp
L Device:R R19
U 1 1 5DCAC3DA
P 6450 1900
F 0 "R19" V 6657 1900 50  0000 C CNN
F 1 "39.2" V 6566 1900 50  0000 C CNN
F 2 "Resistor_SMD:R_0805_2012Metric_Pad1.15x1.40mm_HandSolder" V 6380 1900 50  0001 C CNN
F 3 "~" H 6450 1900 50  0001 C CNN
	1    6450 1900
	0    -1   -1   0   
$EndComp
Wire Wire Line
	3450 2750 3900 2750
$Comp
L power:GNDREF #PWR09
U 1 1 5DCB34DC
P 5650 2550
F 0 "#PWR09" H 5650 2300 50  0001 C CNN
F 1 "GNDREF" H 5655 2377 50  0001 C CNN
F 2 "" H 5650 2550 50  0001 C CNN
F 3 "" H 5650 2550 50  0001 C CNN
	1    5650 2550
	-1   0    0    1   
$EndComp
NoConn ~ 6150 5150
NoConn ~ 6250 5150
NoConn ~ 6350 5150
NoConn ~ 6450 5150
NoConn ~ 6550 5150
NoConn ~ 6250 2550
NoConn ~ 6350 2550
NoConn ~ 6450 2550
NoConn ~ 6550 2550
NoConn ~ 6650 2550
$Comp
L Device:R R24
U 1 1 5DCBC435
P 6050 5400
F 0 "R24" H 6120 5446 50  0000 L CNN
F 1 "806" H 6120 5355 50  0000 L CNN
F 2 "Resistor_SMD:R_0805_2012Metric_Pad1.15x1.40mm_HandSolder" V 5980 5400 50  0001 C CNN
F 3 "~" H 6050 5400 50  0001 C CNN
	1    6050 5400
	1    0    0    -1  
$EndComp
$Comp
L Device:R R21
U 1 1 5DCBCA5B
P 6150 2300
F 0 "R21" H 6220 2346 50  0000 L CNN
F 1 "806" H 6220 2255 50  0000 L CNN
F 2 "Resistor_SMD:R_0805_2012Metric_Pad1.15x1.40mm_HandSolder" V 6080 2300 50  0001 C CNN
F 3 "~" H 6150 2300 50  0001 C CNN
	1    6150 2300
	1    0    0    -1  
$EndComp
$Comp
L Device:R R20
U 1 1 5DCD16CA
P 7150 2100
F 0 "R20" V 7350 2100 50  0000 C CNN
F 1 "50" V 7250 2100 50  0000 C CNN
F 2 "Resistor_SMD:R_0805_2012Metric_Pad1.15x1.40mm_HandSolder" V 7080 2100 50  0001 C CNN
F 3 "~" H 7150 2100 50  0001 C CNN
	1    7150 2100
	0    -1   -1   0   
$EndComp
Wire Wire Line
	6150 2500 6150 2550
$Comp
L Device:R R22
U 1 1 5DCE1F88
P 7150 2500
F 0 "R22" V 7350 2500 50  0000 C CNN
F 1 "806" V 7250 2500 50  0000 C CNN
F 2 "Resistor_SMD:R_0805_2012Metric_Pad1.15x1.40mm_HandSolder" V 7080 2500 50  0001 C CNN
F 3 "~" H 7150 2500 50  0001 C CNN
	1    7150 2500
	0    -1   -1   0   
$EndComp
Wire Wire Line
	6300 1900 6150 1900
Wire Wire Line
	5850 1900 5850 2550
Connection ~ 6150 1900
Wire Wire Line
	6150 1900 5850 1900
Wire Wire Line
	6050 2100 6050 2550
Wire Wire Line
	6150 1900 6150 2150
Wire Wire Line
	6150 2450 6150 2500
Connection ~ 6150 2500
$Comp
L power:GNDREF #PWR08
U 1 1 5DCEE131
P 7300 2500
F 0 "#PWR08" H 7300 2250 50  0001 C CNN
F 1 "GNDREF" H 7305 2327 50  0001 C CNN
F 2 "" H 7300 2500 50  0001 C CNN
F 3 "" H 7300 2500 50  0001 C CNN
	1    7300 2500
	0    -1   -1   0   
$EndComp
$Comp
L Device:R R25
U 1 1 5DCFF023
P 7150 5600
F 0 "R25" V 7350 5600 50  0000 C CNN
F 1 "50" V 7250 5600 50  0000 C CNN
F 2 "Resistor_SMD:R_0805_2012Metric_Pad1.15x1.40mm_HandSolder" V 7080 5600 50  0001 C CNN
F 3 "~" H 7150 5600 50  0001 C CNN
	1    7150 5600
	0    -1   -1   0   
$EndComp
$Comp
L Device:R R23
U 1 1 5DCFF030
P 7150 5200
F 0 "R23" V 7350 5200 50  0000 C CNN
F 1 "806" V 7250 5200 50  0000 C CNN
F 2 "Resistor_SMD:R_0805_2012Metric_Pad1.15x1.40mm_HandSolder" V 7080 5200 50  0001 C CNN
F 3 "~" H 7150 5200 50  0001 C CNN
	1    7150 5200
	0    -1   -1   0   
$EndComp
Wire Wire Line
	6050 5150 6050 5200
Wire Wire Line
	6050 5250 6050 5200
Connection ~ 6050 5200
Wire Wire Line
	5950 5600 5950 5150
Wire Wire Line
	5750 5750 6050 5750
Wire Wire Line
	5750 5150 5750 5750
Wire Wire Line
	6050 5550 6050 5750
Connection ~ 6050 5750
Wire Wire Line
	6050 5750 6200 5750
Wire Wire Line
	7650 5600 7300 5600
Wire Wire Line
	4350 2250 5750 2250
Wire Wire Line
	5750 2250 5750 2550
Connection ~ 4350 2250
Wire Wire Line
	5950 2550 5950 1300
Wire Wire Line
	5950 1300 4350 1300
Connection ~ 4350 1300
Wire Wire Line
	4350 5250 5650 5250
Wire Wire Line
	5650 5250 5650 5150
Connection ~ 4350 5250
Wire Wire Line
	5850 5150 5850 6200
Wire Wire Line
	5850 6200 4350 6200
Connection ~ 4350 6200
$Comp
L power:GNDREF #PWR011
U 1 1 5DD68E60
P 9000 3600
F 0 "#PWR011" H 9000 3350 50  0001 C CNN
F 1 "GNDREF" H 9005 3427 50  0001 C CNN
F 2 "" H 9000 3600 50  0001 C CNN
F 3 "" H 9000 3600 50  0001 C CNN
	1    9000 3600
	1    0    0    -1  
$EndComp
Wire Wire Line
	6600 1900 6900 1900
Wire Wire Line
	6900 1900 6900 2600
Wire Wire Line
	6900 5750 6500 5750
Wire Wire Line
	6050 2100 7000 2100
Wire Wire Line
	7300 2100 8300 2100
Wire Wire Line
	6150 2500 7000 2500
Wire Wire Line
	6050 5200 7000 5200
$Comp
L power:GNDREF #PWR012
U 1 1 5DD91B68
P 7300 5200
F 0 "#PWR012" H 7300 4950 50  0001 C CNN
F 1 "GNDREF" H 7305 5027 50  0001 C CNN
F 2 "" H 7300 5200 50  0001 C CNN
F 3 "" H 7300 5200 50  0001 C CNN
	1    7300 5200
	0    -1   -1   0   
$EndComp
Wire Wire Line
	5950 5600 7000 5600
$Comp
L power:GNDREF #PWR07
U 1 1 5DD92525
P 9700 2200
F 0 "#PWR07" H 9700 1950 50  0001 C CNN
F 1 "GNDREF" H 9705 2027 50  0001 C CNN
F 2 "" H 9700 2200 50  0001 C CNN
F 3 "" H 9700 2200 50  0001 C CNN
	1    9700 2200
	0    -1   -1   0   
$EndComp
$Comp
L Device:L L1
U 1 1 5DA89676
P 3150 1300
F 0 "L1" V 3100 1300 50  0000 C CNN
F 1 "330@100MHz" V 3250 1300 50  0000 C CNN
F 2 "Inductor_SMD:L_0805_2012Metric_Pad1.15x1.40mm_HandSolder" H 3150 1300 50  0001 C CNN
F 3 "~" H 3150 1300 50  0001 C CNN
	1    3150 1300
	0    -1   -1   0   
$EndComp
$Comp
L Device:L L2
U 1 1 5DA8FAD0
P 3150 2250
F 0 "L2" V 3100 2250 50  0000 C CNN
F 1 "330@100MHz" V 3250 2250 50  0000 C CNN
F 2 "Inductor_SMD:L_0805_2012Metric_Pad1.15x1.40mm_HandSolder" H 3150 2250 50  0001 C CNN
F 3 "~" H 3150 2250 50  0001 C CNN
	1    3150 2250
	0    -1   -1   0   
$EndComp
$Comp
L Device:L L3
U 1 1 5DA909E7
P 3150 5250
F 0 "L3" V 3100 5250 50  0000 C CNN
F 1 "330@100MHz" V 3250 5250 50  0000 C CNN
F 2 "Inductor_SMD:L_0805_2012Metric_Pad1.15x1.40mm_HandSolder" H 3150 5250 50  0001 C CNN
F 3 "~" H 3150 5250 50  0001 C CNN
	1    3150 5250
	0    -1   -1   0   
$EndComp
$Comp
L Device:L L4
U 1 1 5DA91844
P 3150 6200
F 0 "L4" V 3100 6200 50  0000 C CNN
F 1 "330@100MHz" V 3250 6200 50  0000 C CNN
F 2 "Inductor_SMD:L_0805_2012Metric_Pad1.15x1.40mm_HandSolder" H 3150 6200 50  0001 C CNN
F 3 "~" H 3150 6200 50  0001 C CNN
	1    3150 6200
	0    -1   -1   0   
$EndComp
$Comp
L SamacSys_Parts:RCJ-2134 J3
U 1 1 5DA7E5C3
P 9700 2200
F 0 "J3" H 10400 1835 50  0000 C CNN
F 1 "RCJ-2134" H 10400 1926 50  0000 C CNN
F 2 "Connector_Audio:RCJ2134" H 10950 2300 50  0001 L CNN
F 3 "" H 10950 2200 50  0001 L CNN
F 4 "RCA Phono Connectors RCA jack, 2P, 1 x 2, horizontal, through hole, YL/WH" H 10950 2100 50  0001 L CNN "Description"
F 5 "20.2" H 10950 2000 50  0001 L CNN "Height"
F 6 "490-RCJ-2134" H 10950 1900 50  0001 L CNN "Mouser Part Number"
F 7 "https://www.mouser.com/Search/Refine.aspx?Keyword=490-RCJ-2134" H 10950 1800 50  0001 L CNN "Mouser Price/Stock"
F 8 "CUI" H 10950 1700 50  0001 L CNN "Manufacturer_Name"
F 9 "RCJ-2134" H 10950 1600 50  0001 L CNN "Manufacturer_Part_Number"
	1    9700 2200
	-1   0    0    1   
$EndComp
Wire Wire Line
	8300 2200 7650 2200
Wire Wire Line
	7650 2200 7650 5600
$Comp
L power:GNDREF #PWR06
U 1 1 5DA88EE1
P 9700 2100
F 0 "#PWR06" H 9700 1850 50  0001 C CNN
F 1 "GNDREF" H 9705 1927 50  0001 C CNN
F 2 "" H 9700 2100 50  0001 C CNN
F 3 "" H 9700 2100 50  0001 C CNN
	1    9700 2100
	0    -1   -1   0   
$EndComp
$Comp
L SamacSys_Parts:NMJ6HCD2 J4
U 1 1 5DA7F463
P 9100 2700
F 0 "J4" H 9550 2965 50  0000 C CNN
F 1 "NMJ6HCD2" H 9550 2874 50  0000 C CNN
F 2 "Connector_Audio:NMJ6HCD2" H 9850 2800 50  0001 L CNN
F 3 "" H 9850 2700 50  0001 L CNN
F 4 "Phone Connectors STEREO CHROME NOSE" H 9850 2600 50  0001 L CNN "Description"
F 5 "" H 9850 2500 50  0001 L CNN "Height"
F 6 "550-22302" H 9850 2400 50  0001 L CNN "Mouser Part Number"
F 7 "https://www.mouser.com/Search/Refine.aspx?Keyword=550-22302" H 9850 2300 50  0001 L CNN "Mouser Price/Stock"
F 8 "Neutrik" H 9850 2200 50  0001 L CNN "Manufacturer_Name"
F 9 "NMJ6HCD2" H 9850 2100 50  0001 L CNN "Manufacturer_Part_Number"
	1    9100 2700
	0    1    1    0   
$EndComp
Wire Wire Line
	8900 3600 8900 3700
Wire Wire Line
	8900 3700 6900 3700
Wire Wire Line
	6900 3700 6900 5750
Wire Wire Line
	8900 2700 8900 2600
Wire Wire Line
	8900 2600 6900 2600
NoConn ~ 9000 2700
NoConn ~ 9100 2700
NoConn ~ 9100 3600
NoConn ~ 13150 5400
$EndSCHEMATC
